[gd_scene load_steps=4 format=2]

[ext_resource path="res://Objects/Escalera/Escalera.gd" type="Script" id=1]
[ext_resource path="res://Assets/Graphics/Sunny Land/tileset.png" type="Texture" id=2]

[sub_resource type="RectangleShape2D" id=1]
extents = Vector2( 8, 8 )

[node name="Escalera" type="Node2D"]
z_index = -10
script = ExtResource( 1 )

[node name="spr" type="Sprite" parent="."]
texture = ExtResource( 2 )
region_enabled = true
region_rect = Rect2( 112, 160, 16, 16 )

[node name="detect" type="Area2D" parent="."]

[node name="col" type="CollisionShape2D" parent="detect"]
shape = SubResource( 1 )
[connection signal="area_entered" from="detect" to="." method="_on_detect_area_entered"]
[connection signal="area_exited" from="detect" to="." method="_on_detect_area_exited"]
